<?xml version="1.0" encoding="utf-8"?>
<!-- Author: Natalia Vish, https://nataliavish.com/; donated to resilient.is  -->
<svg version="1.1" id="Layer_1" xmlns="http://www.w3.org/2000/svg" xmlns:xlink="http://www.w3.org/1999/xlink" x="0px" y="0px"
	 viewBox="0 0 932.5 1080" style="enable-background:new 0 0 932.5 1080;" xml:space="preserve">
<style type="text/css">
	.st0{fill:#2B548A;}
	.st1{fill:#FFFFFF;}
	.st2{fill:url(#SVGID_1_);}
</style>
<linearGradient id="SVGID_1_" gradientUnits="userSpaceOnUse" x1="851" y1="-91.8436" x2="64.4864" y2="1081.1465">
	<stop  offset="0" style="stop-color:#2B548A"/>
	<stop  offset="1" style="stop-color:#1EB5F4"/>
</linearGradient>
<path class="st2" d="M932.5,442.8c0-128.8-104.4-233.2-233.1-233.2c-0.4,0-0.8,0-1.2,0C686.5,91.9,587.1,0,466.3,0
	C345.4,0,246,91.9,234.3,209.7c-0.4,0-0.8,0-1.2,0C104.4,209.7,0,314,0,442.8c0,128.7,104.4,233.1,233.1,233.1h184.1L407,897.8
	c-30-1.4-70.6-8.9-111-33c-20.5-12.2-38.8-27.5-54.7-45.5l13.9-5.4c4.7-1.8,8.1-5.9,9.1-10.9c0.9-4.9-0.7-10-4.4-13.5
	c-14.6-13.7-28.2-28.6-40.4-44.5c-9-11.7-17.3-23.9-24.8-36.5c-2.7-4.5-7.5-7.2-12.6-7.2c-0.7,0-1.5,0.1-2.3,0.2
	c-5.9,0.9-10.7,5.3-12,11.2c-5.1,22-6.9,44.4-5.2,66.6c3.2,42.6,18.1,72.7,27,90.8c28,56.6,65.8,90,88.4,110
	c14,12.4,52.8,44.3,109.9,71.3c23.6,11.2,48.3,20.6,73.5,27.9c0.2,0.1,0.5,0.1,0.8,0.2c1.4,0.4,2.7,0.6,4.1,0.6
	c1.7,0,3.3-0.3,4.8-0.8c25.2-7.3,49.8-16.6,73.5-27.9c57.1-27,95.9-58.8,109.9-71.3c22.6-20,60.4-53.4,88.4-110
	c8.9-18,23.8-48.2,27.1-90.8c1.7-22.2-0.1-44.6-5.2-66.6c-1.3-5.9-6.1-10.3-12-11.2c-0.7-0.1-1.5-0.2-2.3-0.2
	c-5.1,0-9.9,2.7-12.6,7.2c-7.5,12.6-15.9,24.9-24.8,36.5c-12.2,15.9-25.8,30.8-40.4,44.5c-3.7,3.5-5.3,8.6-4.4,13.5
	c1,5,4.4,9.1,9.1,10.9l13.9,5.4c-15.9,18-34.3,33.3-54.7,45.5c-40.4,24.2-81,31.6-111,33l-10.2-221.9h184.1
	C828.1,675.9,932.5,571.6,932.5,442.8z M501.2,367.7c7.7-8.4,12.4-19.6,12.4-31.8c0-26.1-21.2-47.3-47.3-47.3s-47.3,21.2-47.3,47.3
	c0,1.1,0,2.2,0.1,3.3c0,0.4,0.1,0.9,0.1,1.3v0.2c0.1,1,0.2,2.1,0.4,3.1c0,0.1,0,0.1,0,0.2c0.4,2.4,1,4.8,1.8,7.1
	c0.6,2,1.4,3.9,2.4,5.7c0.6,1.2,1.2,2.3,1.9,3.4c0,0,0,0.1,0.1,0.2c0.3,0.6,0.7,1.2,1.2,1.8c0.4,0.6,0.8,1.3,1.3,1.9
	c0.5,0.6,0.9,1.2,1.4,1.8c0.5,0.6,1,1.2,1.6,1.8c2,2.3,4.3,4.3,6.7,6.1c0.1,0.1,0.2,0.2,0.4,0.3c0.5,0.3,1,0.7,1.5,1
	c0.6,0.4,1.2,0.9,1.9,1.2c1.1,0.6,2.1,1.2,3.2,1.8c0.2,0.1,0.4,0.2,0.6,0.2l1.3-28.2h19.4v715.2c-4.6-1.3-9.5-2.8-14.7-4.5
	c-16.7-5.4-36.2-12.7-57.4-22.8c-59.9-28.3-98.2-61.6-106.5-69c-23.4-20.8-58.7-52.6-84.9-105.5c-9.3-18.7-22.7-46.4-25.6-85.3
	c-2-26,1.5-47.7,4.8-62.3c7,11.9,15.6,24.7,25.7,38c14.3,18.6,28.8,33.9,42.1,46.3c-10.9,4.3-21.8,8.5-32.7,12.7
	c13.5,18,36.3,43.5,71.3,64.5c50.8,30.4,100.8,35.4,130.3,35.4c0.8,0,1.5,0,2.3,0l10.8-236.8l7-154h-80.7l9.8-31.8h72.4l3.9-85.9
	c-0.4-0.1-0.9-0.3-1.4-0.5c-1-0.3-1.9-0.6-2.8-1c-1-0.3-2-0.8-3-1.2c-2.5-1.1-4.9-2.3-7.2-3.7c-0.2-0.1-0.4-0.2-0.6-0.3
	c-0.1,0-0.2-0.1-0.3-0.2c-1.2-0.7-2.4-1.6-3.7-2.3c-1.2-0.9-2.3-1.7-3.4-2.6h0c-1.1-0.9-2.2-1.8-3.3-2.7c0,0,0,0,0,0
	c0,0,0-0.1-0.1,0c-0.8-0.7-1.6-1.5-2.3-2.2c-0.7-0.8-1.5-1.5-2.3-2.3c-1.4-1.6-2.8-3.2-4.2-4.9c-0.9-1.1-1.8-2.3-2.5-3.4
	c-0.8-1.2-1.6-2.4-2.3-3.6c-0.1,0-0.1-0.1-0.1-0.2c-0.5-0.9-1-1.9-1.6-2.8c-1.1-2-2-3.9-2.9-6c-1.5-3.3-2.6-6.8-3.5-10.3
	c-0.3-1.2-0.5-2.3-0.8-3.5c-0.5-2.3-0.8-4.7-1.1-7.1c-0.1-1.2-0.2-2.4-0.3-3.7c0-1.2-0.1-2.4-0.1-3.7c0-39.6,32.2-71.8,71.8-71.8
	s71.8,32.2,71.8,71.8c0,26.3-14.2,49.4-35.5,61.9L501.2,367.7z"/>
<path class="st1" d="M506.9,490.1c0.5,11,1,21.6,1.4,31.8h80.8l-9.8-31.8H506.9z"/>
</svg>
